<?xml version="1.0" encoding="UTF-8" standalone="no"?>
<!-- Created with Inkscape (http://www.inkscape.org/) -->

<svg
   width="32"
   height="32"
   viewBox="0 0 32 32"
   version="1.1"
   id="svg5"
   inkscape:version="1.2.2 (b0a8486541, 2022-12-01)"
   sodipodi:docname="icon-detail.svg"
   inkscape:export-filename="icon-256.png"
   inkscape:export-xdpi="768"
   inkscape:export-ydpi="768"
   xmlns:inkscape="http://www.inkscape.org/namespaces/inkscape"
   xmlns:sodipodi="http://sodipodi.sourceforge.net/DTD/sodipodi-0.dtd"
   xmlns="http://www.w3.org/2000/svg"
   xmlns:svg="http://www.w3.org/2000/svg">
  <sodipodi:namedview
     id="namedview7"
     pagecolor="#ffffff"
     bordercolor="#000000"
     borderopacity="0.25"
     inkscape:showpageshadow="2"
     inkscape:pageopacity="0.0"
     inkscape:pagecheckerboard="0"
     inkscape:deskcolor="#d1d1d1"
     inkscape:document-units="px"
     showgrid="true"
     inkscape:lockguides="true"
     inkscape:zoom="13.455443"
     inkscape:cx="11.816779"
     inkscape:cy="16.536059"
     inkscape:window-width="1250"
     inkscape:window-height="670"
     inkscape:window-x="0"
     inkscape:window-y="0"
     inkscape:window-maximized="1"
     inkscape:current-layer="layer2"
     showguides="true">
    <inkscape:grid
       type="xygrid"
       id="grid9"
       originx="0"
       originy="0"
       empspacing="8" />
  </sodipodi:namedview>
  <defs
     id="defs2">
    <filter
       style="color-interpolation-filters:sRGB"
       inkscape:label="Drop Shadow"
       id="filter4038"
       x="-0.26666668"
       y="-0.17142858"
       width="1.5333333"
       height="1.4142857">
      <feFlood
         flood-opacity="0.498039"
         flood-color="rgb(0,0,0)"
         result="flood"
         id="feFlood4028" />
      <feComposite
         in="flood"
         in2="SourceGraphic"
         operator="in"
         result="composite1"
         id="feComposite4030" />
      <feGaussianBlur
         in="composite1"
         stdDeviation="1"
         result="blur"
         id="feGaussianBlur4032" />
      <feOffset
         dx="0"
         dy="1"
         result="offset"
         id="feOffset4034" />
      <feComposite
         in="SourceGraphic"
         in2="offset"
         operator="over"
         result="composite2"
         id="feComposite4036" />
    </filter>
    <filter
       style="color-interpolation-filters:sRGB"
       inkscape:label="Drop Shadow"
       id="filter4050"
       x="-0.26666668"
       y="-0.2"
       width="1.5333333"
       height="1.4833333">
      <feFlood
         flood-opacity="0.498039"
         flood-color="rgb(0,0,0)"
         result="flood"
         id="feFlood4040" />
      <feComposite
         in="flood"
         in2="SourceGraphic"
         operator="in"
         result="composite1"
         id="feComposite4042" />
      <feGaussianBlur
         in="composite1"
         stdDeviation="1"
         result="blur"
         id="feGaussianBlur4044" />
      <feOffset
         dx="0"
         dy="1"
         result="offset"
         id="feOffset4046" />
      <feComposite
         in="SourceGraphic"
         in2="offset"
         operator="over"
         result="composite2"
         id="feComposite4048" />
    </filter>
    <filter
       style="color-interpolation-filters:sRGB"
       inkscape:label="Drop Shadow"
       id="filter4086"
       x="-0.18461537"
       y="-0.30000001"
       width="1.3692307"
       height="1.6">
      <feFlood
         flood-opacity="0.498039"
         flood-color="rgb(0,0,0)"
         result="flood"
         id="feFlood4076" />
      <feComposite
         in="flood"
         in2="SourceGraphic"
         operator="in"
         result="composite1"
         id="feComposite4078" />
      <feGaussianBlur
         in="composite1"
         stdDeviation="2"
         result="blur"
         id="feGaussianBlur4080" />
      <feOffset
         dx="0"
         dy="0"
         result="offset"
         id="feOffset4082" />
      <feComposite
         in="SourceGraphic"
         in2="offset"
         operator="over"
         result="composite2"
         id="feComposite4084" />
    </filter>
    <filter
       style="color-interpolation-filters:sRGB"
       inkscape:label="Drop Shadow"
       id="filter4086-3"
       x="-0.18461538"
       y="-0.3"
       width="1.3692308"
       height="1.6">
      <feFlood
         flood-opacity="0.498039"
         flood-color="rgb(0,0,0)"
         result="flood"
         id="feFlood4076-6" />
      <feComposite
         in="flood"
         in2="SourceGraphic"
         operator="in"
         result="composite1"
         id="feComposite4078-7" />
      <feGaussianBlur
         in="composite1"
         stdDeviation="2"
         result="blur"
         id="feGaussianBlur4080-5" />
      <feOffset
         dx="0"
         dy="0"
         result="offset"
         id="feOffset4082-3" />
      <feComposite
         in="SourceGraphic"
         in2="offset"
         operator="over"
         result="composite2"
         id="feComposite4084-5" />
    </filter>
    <filter
       style="color-interpolation-filters:sRGB;"
       inkscape:label="Drop Shadow"
       id="filter2079"
       x="-0.3"
       y="-0.43636364"
       width="1.6"
       height="1.9636364">
      <feFlood
         flood-opacity="0.498039"
         flood-color="rgb(0,0,0)"
         result="flood"
         id="feFlood2069" />
      <feComposite
         in="flood"
         in2="SourceGraphic"
         operator="in"
         result="composite1"
         id="feComposite2071" />
      <feGaussianBlur
         in="composite1"
         stdDeviation="2"
         result="blur"
         id="feGaussianBlur2073" />
      <feOffset
         dx="0"
         dy="1"
         result="offset"
         id="feOffset2075" />
      <feComposite
         in="SourceGraphic"
         in2="offset"
         operator="over"
         result="composite2"
         id="feComposite2077" />
    </filter>
  </defs>
  <g
     inkscape:groupmode="layer"
     id="layer2"
     inkscape:label="window">
    <path
       style="fill:#1f7689;fill-opacity:1"
       d="M 5,6 C 6,6 6,5 6,5 V 5 C 6,5 6,4 7,4 h 9 c 1,0 1,1 1,1 v 0 c 0,0 0,1 1,1 z"
       id="path1730"
       sodipodi:nodetypes="ccczzcccc"
       inkscape:label="tab" />
    <rect
       style="fill:#1f7689;fill-opacity:1;stroke-width:4.32051"
       id="rect2250"
       width="28"
       height="22"
       x="2"
       y="6"
       ry="1.5"
       inkscape:label="frame"
       rx="1.5" />
    <rect
       style="fill:#d5f0f6;fill-opacity:1;stroke-width:0.56111"
       id="rect1788"
       width="26"
       height="18"
       x="3"
       y="9"
       ry="1"
       inkscape:label="content"
       rx="1" />
    <rect
       style="fill:#d5f0f6;stroke-linecap:round;stroke-miterlimit:1;filter:url(#filter2079)"
       id="rect2055"
       width="16"
       height="11"
       x="8"
       y="12"
       rx="1"
       ry="1"
       inkscape:label="shortcut bg" />
    <rect
       style="display:inline;fill:#dcbd18;fill-opacity:1"
       id="rect2919-2"
       width="4"
       height="4"
       x="19"
       y="18"
       rx="1"
       ry="1"
       inkscape:label="shortcut 6" />
    <rect
       style="display:inline;fill:#18bcdc;fill-opacity:1"
       id="rect2919-7-1"
       width="4"
       height="4"
       x="14"
       y="18"
       rx="1"
       ry="1"
       inkscape:label="shortcut 5" />
    <rect
       style="display:inline;fill:#cf1717;fill-opacity:1"
       id="rect2919-7-1-9"
       width="4"
       height="4"
       x="9"
       y="18"
       rx="1"
       ry="1"
       inkscape:label="shortcut 4" />
    <rect
       style="display:inline;fill:#3fb157;fill-opacity:1"
       id="rect2919"
       width="4"
       height="4"
       x="19"
       y="13"
       rx="1"
       ry="1"
       inkscape:label="shortcut 3" />
    <rect
       style="display:inline;fill:#f4601b;fill-opacity:1"
       id="rect2919-7"
       width="4"
       height="4"
       x="14"
       y="13"
       rx="1"
       ry="1"
       inkscape:label="shortcut 2" />
    <rect
       style="display:inline;fill:#b443f4;fill-opacity:1"
       id="rect2919-7-3"
       width="4"
       height="4"
       x="9"
       y="13"
       rx="1"
       ry="1"
       inkscape:label="shortcut 1" />
  </g>
  <g
     inkscape:label="Layer 1"
     inkscape:groupmode="layer"
     id="layer1" />
</svg>
